…
have the 3rd highest average contribution in Illinois.

I did really know there is a big difference between attorney and lawyer.

However, just from the contribution perspective, attorneys are more involved,

and contribute more than lawyers.

What was the strongest relationship you found?

In Illinois, people support Democracy more, especially Hillary Cliton.

Multivariate Plots Section

## # A tibble: 1,445 x 4
## # Groups:   cand_nm [3]
##                    cand_nm contb_receipt_dt     n     total
##                      <chr>           <date> <int>     <dbl>
##  1 Clinton, Hillary Rodham       2015-04-12   140 151181.00
##  2 Clinton, Hillary Rodham       2015-04-13    61  55980.00
##  3 Clinton, Hillary Rodham       2015-04-14    25  29660.00
##  4 Clinton, Hillary Rodham       2015-04-15    16  16226.00
##  5 Clinton, Hillary Rodham       2015-04-16    19  27800.00
##  6 Clinton, Hillary Rodham       2015-04-17    15  17475.00
##  7 Clinton, Hillary Rodham       2015-04-18     6   6275.00
##  8 Clinton, Hillary Rodham       2015-04-19     4   3001.25
##  9 Clinton, Hillary Rodham       2015-04-20    11  12401.25
## 10 Clinton, Hillary Rodham       2015-04-21    25  33880.64
## # ... with 1,435 more rows
…
Description Two

As discussed above, retired and non-employed people are more involved in the presidential campaign. However, from an average contribution perspective, attorney has the highest average contribution, following by lawyer and homemaker, whose average contribution is almost the same. Non-employed people have the lowest average contribution.

Plot Three

## # A tibble: 1,445 x 4
## # Groups:   cand_nm [3]
##                    cand_nm contb_receipt_dt     n     total
##                      <chr>           <date> <int>     <dbl>
##  1 Clinton, Hillary Rodham       2015-04-12   140 151181.00
##  2 Clinton, Hillary Rodham       2015-04-13    61  55980.00
##  3 Clinton, Hillary Rodham       2015-04-14    25  29660.00
##  4 Clinton, Hillary Rodham       2015-04-15    16  16226.00
##  5 Clinton, Hillary Rodham       2015-04-16    19  27800.00
##  6 Clinton, Hillary Rodham       2015-04-17    15  17475.00
##  7 Clinton, Hillary Rodham       2015-04-18     6   6275.00
##  8 Clinton, Hillary Rodham       2015-04-19     4   3001.25
##  9 Clinton, Hillary Rodham       2015-04-20    11  12401.25
## 10 Clinton, Hillary Rodham       2015-04-21    25  33880.64
## # ... with 1,435 more rows
…
